#2b0707
#340408
#410009
#4f000d
#590213
#620619
#67071b
#63071a
#5f0618
#580414
#520211
#48040e
#45030d
#43000b
#3e010d
#33020d
#29050c
#160604
#0e0402
#090200
#030101
#000100
#000002
#010005
#040308
#08070c
#0e0d12
#16151a
#1c1d23
#1e2128
#25252a
#252429
#232023
#1f1b1c
#171614
#0f0e0c
#11110f
#181816
#21211f
#2a2927
#322c2c
#353030
#343231
#302f2d
#2c2e2b
#262b2b
#21282a
#1d2426
#1d2426
#1e2527
#1e2427
#1e2125
#1e1d22
#1d1b1f
#1b1717
#1b1514
#1b1312
#1e1712
#231b16
#291e1a
#2e211e
#332421
#332623
#312823
#322924
#332a25
#382e2a
#3e3530
#443a36
#4a413c
#524844
#564c48
#584f4a
#5a504c
#584d49
#564c47
#524b45
#4c4741
#48443e
#48433c
#330004
#400009
#4f010e
#5f0416
#68081c
#6e0c21
#6f0d21
#6c0c20
#660b1e
#5f0819
#590616
#4e0611
#47040e
#43020d
#3b020d
#32030d
#28050c
#170706
#100503
#0b0301
#050202
#020202
#010103
#030306
#07070a
#0b0b0e
#121115
#1a1a1d
#202125
#22252a
#28282d
#29292b
#272425
#231f1f
#1d1a18
#161311
#181513
#1d1a17
#262321
#2f2b29
#383130
#3a3533
#3b3835
#373633
#333430
#2f3231
#2b3032
#272d2e
#262c2d
#262c2d
#262c2d
#27282c
#262628
#242324
#252121
#251f1e
#261e1b
#28211c
#2e2520
#342925
#3b2e2b
#40312e
#413330
#3f3430
#403531
#413632
#423733
#443935
#483d39
#4c413d
#4f4440
#524743
#544945
#574c48
#564a46
#534844
#504742
#4d4640
#47433d
#46403a
#4b000c
#590314
#69061b
#72081f
#790d25
#7c1229
#791228
#751227
#6f1024
#660d1f
#60091a
#530613
#49040f
#42040e
#38040d
#2e050d
#25060b
#190707
#130504
#0d0302
#080203
#040203
#030304
#050506
#090909
#0e0e0e
#151515
#1e1e1e
#232527
#26292c
#2c2c2f
#2c2c2d
#2a2827
#272321
#251e1b
#1f1815
#201916
#241c19
#2c2522
#352d2b
#3e3633
#413a37
#423d39
#3e3c37
#3a3934
#383936
#343837
#313534
#2f3332
#2f3332
#2f3332
#2e3031
#2d2d2e
#2c2b2a
#2f2b28
#2f2a26
#2f2824
#322b25
#382f2a
#3c312d
#3e312e
#433431
#453633
#443733
#453734
#453734
#443633
#423431
#443633
#443633
#433632
#463835
#483a37
#4a3d3a
#4b3c39
#483a37
#443935
#413933
#3d3630
#3c342f
#630116
#6e051c
#790822
#840f2a
#87152f
#881a32
#861b32
#80182f
#79162b
#6f1124
#65091b
#570413
#4a030f
#3e040c
#30030a
#260309
#200307
#190606
#150504
#100303
#0c0406
#080406
#050306
#050504
#0b0b0a
#10100f
#171716
#222221
#282a2a
#2a2d2e
#303030
#2f2f2d
#2c2a27
#292521
#2e2421
#2d211f
#2b1f1d
#332725
#382d2a
#3e3330
#453a37
#483e3b
#49413d
#44403b
#403d37
#3c3c38
#3b3c3a
#3a3b39
#383938
#373837
#373837
#363836
#363634
#353531
#393531
#38332e
#39332c
#3e3731
#413833
#433834
#443734
#473835
#4a3b38
#4d3c3a
#4a3a37
#493836
#483735
#473634
#453532
#433330
#40302d
#41312e
#42322f
#433330
#42322f
#41312e
#3e302d
#392e2a
#352c27
#342c26
#74061f
#7d0924
#860d29
#8a122e
#8b1832
#8e1e37
#8e1f38
#881c34
#821a31
#78162b
#6e0e22
#60091a
#4f0511
#3a030a
#2b0308
#220308
#1e0206
#1a0506
#170404
#110303
#0f0507
#0b0507
#080506
#070804
#0d0e0a
#131410
#1b1c18
#262723
#2e302e
#323535
#383936
#353632
#32302b
#2f2b25
#312520
#342621
#372824
#3f302b
#443631
#493b36
#4b3e39
#4d423c
#4e453e
#4a443c
#454139
#42403a
#3f403c
#3e3f3b
#3e3f3a
#3e3f3b
#3e3f3b
#3f413d
#3f403c
#3f3e39
#43403a
#433f38
#443d35
#423b35
#453c37
#473c38
#473a37
#4a3b38
#4d3d3a
#4f3d3b
#4c3a38
#4b3937
#4a3836
#493735
#463432
#443230
#412f2d
#443230
#453331
#463432
#473332
#453331
#423330
#3d302d
#392e2a
#372d28
#7d0b27
#840f2b
#8b132f
#8c1531
#8e1c35
#912039
#932139
#8e2037
#881f35
#801c30
#751527
#660e1e
#520713
#390209
#290306
#210306
#1d0104
#1c0407
#180406
#130405
#100608
#0b0707
#080707
#0a0a06
#10100c
#151612
#1d1f1a
#282a26
#313634
#373c3c
#3d3f3d
#393b37
#353530
#32302b
#342723
#3a2a26
#402f2b
#4a3835
#503e3a
#54423f
#50443e
#504640
#514842
#4f4640
#4a443c
#46433c
#44433e
#42413c
#41423c
#42433d
#42433e
#454742
#464743
#474743
#4b4943
#4a4841
#49453e
#453e3a
#473e3a
#483d3a
#473b38
#4b3c3a
#4e3d3b
#503b3a
#4d3938
#4d3837
#4c3837
#4b3736
#473332
#453130
#432f2e
#463231
#483433
#493534
#4a3635
#483634
#453532
#40322f
#3c302c
#382f2a
#7f0c2b
#83102e
#86142e
#8a1832
#8f1d34
#932036
#952035
#932337
#8e2436
#852030
#7c1a29
#6d1321
#580b16
#3f050c
#2d0406
#240305
#200003
#20040a
#1b040a
#150709
#0f0909
#0a0a07
#080907
#0d0a09
#11100e
#161715
#20221f
#2b302c
#313838
#343c3e
#3a3f40
#383b3a
#343633
#32322e
#342c28
#3b302c
#423431
#50403d
#574543
#5b4947
#554b47
#544a45
#544a45
#534944
#4f4540
#4b453f
#46463e
#43443c
#41443b
#40453b
#40473d
#464844
#494a48
#4b4c4a
#4d4d4b
#494a48
#474744
#49423f
#473f3c
#463b3a
#463938
#4a3b3b
#4e3c3b
#4f3a39
#4d3837
#4d3837
#4c3736
#4b3635
#473231
#463130
#463130
#483332
#4b3635
#4d3837
#4c3837
#4a3836
#463734
#413531
#3d322e
#39302b
#7f0929
#820c2b
#86112c
#8e1933
#921e36
#962138
#982238
#972539
#95273a
#8e2536
#851e2f
#771827
#63101d
#4c0913
#360509
#2a0408
#230206
#21060b
#1c060c
#18070b
#12090a
#0d0a09
#0b0a08
#0e0a09
#120f0e
#171715
#21221f
#2c2f2c
#303535
#323738
#363a3a
#353835
#33322f
#302f2a
#39312c
#403531
#473a37
#544441
#5b4947
#5f4d4b
#5a4f4b
#594d4a
#584d49
#584c48
#544945
#514843
#4d4942
#494740
#46473f
#464840
#474a41
#4a4b47
#4d4d4b
#4e4e4c
#50504e
#4d4c4b
#4a4946
#4e4542
#4c4240
#4b3f3d
#4a3c3a
#4d3d3d
#513f3e
#523f3d
#503c3b
#4e3a39
#4d3938
#4b3837
#473432
#463231
#463231
#493534
#4b3736
#4d3938
#4d3a38
#4b3937
#483936
#443834
#403531
#3c332e
#7d0626
#810a29
#86102c
#8f1934
#931d36
#972138
#992339
#9b263b
#9a283c
#952639
#902235
#831c2e
#6f1323
#580a18
#40040d
#2d0308
#250408
#20070c
#1d070d
#1a080c
#160a0b
#12090a
#150d0e
#100909
#140e0e
#161312
#1b1a18
#252624
#2b2e2c
#2e3131
#323533
#333330
#302e2a
#312e28
#3b332e
#433834
#4c3f3b
#584846
#5e4c4a
#62504e
#5f514e
#5f504d
#5e504d
#5d4f4c
#5a4c49
#574b47
#544b46
#514a44
#4e4943
#4d4b44
#4c4c44
#4f4d4a
#504e4c
#524f4e
#545250
#4e4c4a
#4e4a48
#534a45
#50453f
#51433f
#4f3f3b
#53403d
#554340
#544240
#513f3d
#4e3d3b
#4d3b39
#4b3937
#483634
#483634
#473634
#4a3937
#4c3a38
#4d3b39
#4e3b3a
#4c3a38
#493a37
#453935
#413632
#3f3530
#7e0626
#840b2b
#89112e
#8f1833
#931c35
#971f37
#9a2339
#9d263c
#9f283e
#9c263c
#9a233a
#8f2135
#7c1729
#650c1d
#4d0712
#320209
#250609
#20080d
#1e090e
#1d0a0e
#18080b
#17090c
#120608
#110809
#110909
#140f0e
#161312
#1c1b19
#20211f
#232522
#282824
#2c2a25
#2a2620
#302c24
#3d342f
#463b37
#514340
#5c4c4a
#614f4d
#655150
#63524f
#63524f
#63524f
#62514f
#604e4c
#5d4d4b
#5a4d49
#584c48
#554c47
#544d47
#534d47
#534e4c
#544e4e
#544e4e
#544f4f
#544e4e
#504948
#574b44
#594b44
#53443d
#54433d
#58453f
#594643
#564643
#524240
#4f403d
#4d3d3b
#4b3b38
#493a37
#493936
#493936
#4c3c3a
#4c3d3a
#4d3c3a
#4f3c3b
#4e3c3a
#4a3b38
#463936
#423834
#413733
#830729
#890e2e
#8e1330
#921733
#961b35
#992038
#9b243a
#a0273e
#a42941
#a42940
#a2263e
#98253b
#881e32
#731226
#5b0e1c
#3b0710
#27070b
#200b0f
#200b10
#1f0b10
#1e0b0f
#362529
#27181b
#190f10
#160d0e
#171010
#161111
#161413
#191916
#1d1d1a
#22211c
#292620
#2c2720
#383129
#433a34
#4c413d
#564946
#60504e
#655351
#695554
#675453
#675453
#675452
#665351
#63514f
#62504e
#60504e
#5e4f4c
#5b4e4b
#584f4a
#584f4a
#564f4e
#564f4f
#564f4f
#585051
#524b4b
#5c5352
#796c64
#5d4e47
#5b4942
#5b4842
#5f4a44
#5e4c47
#584b48
#554744
#524441
#50423f
#4e403d
#4b3d3a
#4b3d3a
#4b3d3a
#4c3e3b
#4c3e3b
#4d3e3b
#503e3c
#4f3d3b
#4c3d3a
#493c39
#453a36
#453935
#880929
#8b0d2c
#8f122f
#941835
#971b38
#981f39
#99233a
#9f263e
#a3283f
#a4283e
#a6283e
#9d2a3e
#922539
#7e182b
#641120
#450e15
#2b0a0c
#210c0d
#200d0d
#200d0d
#261414
#604e4e
#8a7c7a
#8e8580
#5a534f
#241c17
#1d1611
#1d1611
#1e1914
#211d18
#28211c
#2e2621
#362b26
#413531
#473d38
#504541
#5b4e4b
#635350
#665452
#695553
#6a5552
#6a5551
#695551
#67534f
#65504d
#63504c
#62514b
#61504b
#60504a
#5e4f4a
#5d504a
#584e4b
#5a504e
#5a4f4c
#5e514e
#756863
#9e928d
#7f7771
#675a55
#624f4b
#644e49
#64504a
#62504a
#5d4e48
#594a45
#564842
#544540
#51423d
#4d3e3b
#4c3d3a
#4b3c39
#4d3e3b
#4d3f3c
#4d3f3c
#50403d
#4f3f3c
#4e3f3c
#4b3d3a
#493c38
#483b38
#880b28
#890d2b
#8b0f2c
#8c122e
#8d1430
#8f1632
#901a34
#961e37
#9c243a
#a2273c
#a6293e
#9e293c
#952639
#841a2d
#6b1222
#4f1119
#340d0f
#240e0d
#220e0d
#210f0d
#271714
#6a5d5b
#958884
#99918a
#b5ada6
#908881
#423b36
#231b14
#221b15
#28211b
#2e2420
#342925
#3e302d
#483936
#4d433f
#544945
#5d4f4c
#635351
#665452
#685552
#6a5550
#6a5550
#69544f
#67524d
#65504b
#624f49
#615049
#615049
#615049
#615049
#615049
#61534d
#5c4e48
#5e514b
#827873
#b2a7a3
#aca39f
#928f8b
#5f5452
#695553
#6a5551
#6a5650
#66564e
#62534c
#5e4f48
#5b4c45
#584942
#54453e
#50413d
#4e3f3c
#4d3e3b
#4f403d
#50413e
#50413e
#51423f
#51423f
#50413e
#4f403d
#4d3e3b
#4d3e3b
#76031e
#780620
#7a0722
#790520
#7c0823
#7f0a25
#820e28
#88132c
#901831
#971d33
#9a1f34
#982034
#972036
#8c192f
#741426
#57131d
#3c0f13
#270e0f
#250f0e
#23100e
#231412
#978a87
#a19692
#a49e99
#a49e99
#b7b1ac
#a6a09b
#4e4945
#2b251f
#2f2822
#352b27
#3c312d
#473835
#50423f
#564b47
#594e4a
#5d4f4c
#655552
#675553
#695653
#6a5550
#6a5550
#69544f
#67524d
#65504b
#624f49
#615049
#615049
#615049
#615049
#615049
#625146
#66584e
#857b75
#b5aeac
#a9a6a6
#9f9ea0
#92908c
#6b6360
#6e5d5a
#6f5b57
#6e5c56
#6b5c54
#685952
#64554e
#60514a
#5c4d46
#584942
#544541
#524340
#51423f
#524340
#524340
#524340
#534441
#534441
#534441
#534441
#524340
#50413e
#650016
#670117
#6a0118
#6c0118
#70011a
#74031e
#790623
#7e0b25
#850f29
#8b132b
#8f172d
#951a30
#991e35
#901b31
#7c192c
#5e1622
#410f15
#2d1012
#291011
#251110
#362a27
#b5aca7
#a79f9a
#a39e9a
#aea9a5
#b9b4b0
#bebab6
#a8a4a0
#4e4944
#332c26
#3b312c
#413632
#493b38
#534542
#5c524d
#615653
#5d504d
#675755
#695755
#6a5654
#69544f
#6a5550
#68534e
#65504b
#65504b
#66534d
#63524b
#62514a
#615049
#63524b
#65544d
#74675c
#aba097
#bfb8b1
#b7b6b3
#a7aaac
#83888b
#a5a6a1
#87827e
#736461
#715f5a
#706159
#6f6158
#6c5d56
#685952
#64554e
#5f5049
#5b4c45
#584945
#564744
#544542
#564744
#564744
#554643
#574845
#564744
#554643
#544542
#524340
#524340
#5a0113
#5d0214
#610215
#670218
#6c031a
#70031d
#730320
#780622
#7e0b25
#850f29
#89122b
#8c142a
#931a30
#8e1a30
#7a182b
#5b1420
#3c0d12
#2f0e11
#2a0f10
#25100f
#615855
#bdb5b0
#aaa5a0
#b3b0ae
#c6c3c0
#b8b5b3
#b8b5b3
#b9b6b4
#aea9a5
#58524c
#403632
#463b37
#544643
#5a4b48
#625753
#655a56
#625552
#685855
#695755
#6a5654
#69544f
#6a5550
#6b5651
#715c57
#7e6964
#7c6963
#786760
#6b5a53
#65544d
#6b5a53
#887871
#b7b1a9
#cecbc5
#bebdb8
#b5b6b4
#a9acab
#9ba09f
#a5a9a3
#9f9c98
#6d5f5c
#70615b
#70635b
#70635a
#6f6059
#6b5c55
#675851
#64554e
#60514a
#5c4d49
#5a4b48
#584946
#5a4b48
#594a47
#574845
#584946
#564744
#554643
#524340
#524340
#51423f
#530111
#560112
#5b0114
#65051a
#6b051c
#720721
#790a28
#7e0d2a
#84112c
#8a152f
#8e1831
#952036
#992339
#8a1a2f
#721527
#54121c
#360a0e
#2e0d10
#2a0d0f
#230f0e
#625a56
#bfbab3
#b2b0aa
#b9b7b5
#c8c7c5
#c2c1bf
#c2c1bf
#c1bfbe
#beb9b6
#aca6a0
#5d544f
#5e5450
#726461
#968784
#a29792
#726763
#736662
#685855
#695755
#6b5754
#6e5a55
#705b56
#75615c
#8d7873
#b6a29d
#bdaaa4
#b3a39c
#887770
#7d6d66
#afa098
#c5b6af
#cac9c7
#bcbfbe
#aaadab
#a9aba8
#9d9e9a
#a4a5a1
#b2b6b0
#a8a5a0
#6f645f
#70635c
#70655c
#71655c
#71625b
#6d5e58
#6b5c55
#695a53
#65564f
#61524e
#5e4f4c
#5c4c4a
#5d4d4a
#5c4c49
#5a4b48
#584945
#564744
#554642
#51423f
#50413d
#50413e
#540115
#5a0217
#61021a
#6a031e
#720521
#790926
#82102b
#8b1430
#921734
#931a36
#931e39
#97253d
#97263c
#841a30
#6b1425
#480b16
#2f070c
#260c0d
#24100f
#221411
#4f4944
#c4c1ba
#b5b3ad
#b9b2b0
#c8cac7
#ccd3d1
#c9cfce
#bfbfc2
#c0bebd
#b8b5b0
#a6a09b
#776d67
#887a73
#cdbcb5
#d1c1ba
#93847e
#9a8b84
#8c7c76
#92827c
#8c7d76
#a1968e
#a99e95
#c1b5ad
#c3b8af
#ded2ca
#dbccc5
#cfbfb8
#bdb1ab
#beb5ae
#beb8b0
#c7c4bc
#bdc4c4
#bdc6c8
#c3c8cb
#c4c9cc
#bfc1c5
#bfc0c4
#bec1be
#aca9a4
#6a5f55
#706259
#70635d
#6e635f
#6d625d
#6b5f5b
#695e59
#675b57
#635753
#645351
#64504f
#614e4d
#5f4c4b
#5d4a49
#5b4846
#574841
#54453d
#51423b
#50413a
#4f4038
#4e4038
#60041b
#5f021a
#61021a
#6a0721
#6f0a24
#750c26
#7c0f28
#87132e
#901733
#921a36
#921f39
#93223a
#902237
#7a172b
#5f0e1d
#3f0711
#2b060b
#220c0b
#21100e
#20130f
#2d2622
#beb9b3
#b9b5af
#b6afad
#c9c8c6
#d0d5d3
#d4d9d9
#c1c0c5
#bbbaba
#b2b1ac
#b5b1ab
#a8a09a
#8e8179
#c3b4ad
#cabfb6
#c2b7ae
#d7cdc4
#c4bab1
#cdc2ba
#cdc3ba
#cbc1b8
#d3c9c0
#d7cdc4
#d7cdc4
#dcd2c9
#cdbfb8
#e2d3cc
#d7cbc5
#ccc5be
#c7c4be
#c8c8c2
#ccd4d4
#cfd8db
#d3d9dc
#d5d9dd
#c2c3c8
#c0c1c5
#bcbebc
#97948f
#6b6157
#6f6157
#6f625c
#6e635f
#6d625e
#6a5f5b
#695e5a
#665b57
#635854
#655552
#645250
#62504e
#604e4c
#5e4c4a
#5b4a47
#594b44
#564840
#53453d
#52443c
#51433b
#4f433b
#6b0721
#65031c
#5f0118
#5f021a
#61061d
#660b20
#731025
#7f142b
#8a1732
#8f1c36
#8f2039
#8e2037
#871f32
#6f1526
#500a15
#35030b
#290609
#1f0c0a
#1f0f0c
#1f120f
#201813
#9f9893
#b2aba6
#bdb7b4
#aca9a7
#b2b1b1
#d9dadb
#d7d6db
#bdbebd
#c3c3be
#b8b5b0
#c7c0b9
#8c8179
#afa199
#ccc5bb
#dad5ca
#e1dcd1
#ddd8cd
#d8d3c8
#dfd8ce
#d8cec5
#dad0c7
#dbd1c8
#dad0c7
#d4cac1
#cabeb5
#dcd0c8
#cfc5bf
#cdc8c3
#c8c7c4
#c9cac9
#c2cacb
#bdc6c8
#bac0c4
#c5c9ce
#c4c6cb
#c0c1c5
#b5b8b6
#84817c
#6b6056
#6d5f55
#6e615b
#6d625e
#6d625e
#6a5f5b
#695e5a
#665b57
#635854
#645653
#645451
#62524f
#5f504d
#5d4e4b
#5b4c49
#594e48
#564b45
#534841
#524741
#51463f
#50463f
#69031e
#68061f
#660820
#60061c
#5c061b
#590518
#630b1c
#731226
#7b1128
#83152e
#881b34
#871c32
#781527
#5e0e1c
#460b13
#2e0509
#230507
#1c0d0b
#1d100d
#1e130f
#231915
#968d89
#aaa19d
#b1aca9
#aca5a5
#b6afb2
#c6c3c6
#dddde2
#d2d6d4
#bbbfb8
#c3c3bd
#c2beb5
#c4bcb3
#988e85
#cac3b9
#dfd8ce
#d7d1c7
#dbd5cb
#d4cfc4
#dfd8ce
#e2d8cf
#e2d8cf
#d7cdc4
#d2c8bf
#c9bfb6
#c5bab1
#c7bdb3
#d1cac3
#bdb9b6
#c2c2c3
#c5c7cb
#c2cbcd
#c4cdd0
#c4cace
#c1c5ca
#cbcdd2
#c9cacf
#b9bcba
#76736d
#695e54
#6c5e54
#6c5f59
#6b605c
#6c615d
#6b605c
#695e5a
#675c58
#665b57
#645854
#625552
#605350
#5e514e
#5e514e
#5e514e
#5c514e
#5a4f4c
#584d4a
#554b48
#534845
#514844
#63041c
#64061e
#63071e
#60071d
#5e071d
#5b081b
#5b0c1a
#660c1e
#720d23
#7a1027
#80162d
#80172c
#6f1021
#520a15
#3a0a0e
#290609
#260a0b
#1d110d
#1e1410
#211612
#2c211d
#a39794
#a89e9a
#a7a19e
#b2a8a9
#a5989c
#b7afb3
#c3c3c8
#d1d6d4
#c5cac3
#c2c4bd
#bfbcb4
#d5cdc4
#c5bdb3
#c8bdb4
#e6dad2
#e3d8d0
#e4d8d0
#dacfc6
#eadfd7
#e0d6cd
#e4dad1
#d7cdc4
#d1c7be
#c0b6ad
#b0a69c
#cbc3b8
#cbc5bf
#c1bfbe
#cdced3
#c8ccd4
#cad2d6
#c8d1d4
#d5dbde
#d6dadf
#d7d9de
#c8cace
#c3c6c4
#7f7c76
#685d54
#6b5d53
#6b5e58
#6b605c
#6c615d
#6b605c
#6a5f5b
#6a5f5b
#685d59
#665b57
#635854
#615652
#615652
#615652
#605652
#5f5653
#5c5351
#5a524f
#5a514e
#574e4c
#544d4a
#5d0519
#5e071b
#60091c
#60091d
#5f081c
#5d0a1b
#570c19
#5d0717
#6a0a1e
#710c21
#761126
#751025
#640b1b
#480610
#31070a
#250809
#260e0e
#1e140f
#201712
#231914
#372d29
#9f9591
#b6aeaa
#c6c2bf
#c7bcbd
#8c7e82
#a1979b
#bdbbbe
#b6bab9
#bfc3be
#c1c3bd
#bcbbb2
#d4cfc5
#d2ccc1
#cec1b9
#daccc4
#e5d7cf
#e3d5cd
#e4d6cf
#e5d7cf
#e5dbd1
#e2d8cf
#d8cec5
#cec4ba
#b6aca2
#bcb3a8
#dcd6ca
#ccc8c2
#b8b8b6
#bdbfc3
#c7cdd5
#cad0d6
#b9c0c3
#a2a6aa
#b1b5b7
#b7b8bb
#b9babb
#9a9d9b
#66625c
#645a50
#695b51
#695c56
#6a5f5b
#6b615c
#6b605c
#6c615d
#6c615d
#6a605c
#675e59
#655c57
#635a55
#635a55
#635a55
#625954
#615856
#605754
#5f5553
#5e5553
#5c5350
#59514f
#520311
#560614
#5a0817
#5a0716
#5b0616
#5a0716
#580816
#5a0716
#600819
#650a1c
#650a1c
#60091c
#520618
#3f030f
#2c050a
#240c0c
#21120f
#201611
#221a15
#241e18
#48443e
#b3b2aa
#bfbfb9
#adafac
#948f8f
#746a6b
#827879
#b1aaab
#c7c7c8
#bebfc0
#b7b7b5
#bfbdb7
#d4d0c7
#d0ccc1
#d3cbc0
#dfd6cc
#e1d9ce
#dad1c7
#eae2d7
#dcd4c9
#e5dbd1
#e1d7cd
#d9cfc5
#c6bcb2
#c6bcb2
#c5bdb2
#d9d4c9
#d3d1c9
#a8aaa4
#999e9d
#adb5b5
#acadb3
#7b7a80
#767678
#848583
#abaca7
#caccc6
#a2a4a1
#5c5852
#60554b
#65564d
#665953
#675d58
#69605b
#6a615c
#6b625d
#6a615c
#69605b
#685f5a
#665d58
#655c57
#655c57
#625954
#605752
#615652
#625552
#625552
#615551
#5e524f
#5c504c
#43000b
#49020e
#4f0411
#560414
#590314
#590314
#540514
#530614
#520613
#510613
#500713
#4b0413
#430310
#3a020d
#2f050b
#2a0b0e
#271111
#231814
#251d17
#26211b
#56534c
#c0bfb8
#ccccc5
#929590
#6c6865
#807675
#a29797
#b8b2b0
#cecccc
#bebebe
#cdccc9
#d4d1cb
#d5d0c6
#d2cdc1
#d7d0c5
#dfd7cc
#ddd5ca
#e1d9ce
#e6ded3
#d9d1c6
#dcd2c8
#e3d9cf
#d7cdc3
#c3b9af
#d2c8be
#d1c9be
#dad4c8
#d2cfc5
#c5c6c0
#b0b5b1
#929998
#7f7f83
#939296
#969697
#888887
#72736f
#c6c7c3
#b4b6b4
#59554f
#5e5349
#62544a
#635650
#635955
#645b56
#665d58
#675e59
#675e59
#665d58
#665d58
#655c57
#645b56
#635a55
#615853
#5f5651
#5f5551
#5f5551
#5f5551
#5f5450
#5c514d
#5a504b
#330108
#38020b
#40020d
#4b0311
#500112
#510213
#4b0413
#450612
#3e0610
#3b050e
#3b030d
#38010b
#36010b
#36030c
#32040c
#2d0a0e
#2a1112
#281c18
#261e18
#29241e
#69655f
#cfcec6
#ddded6
#b9bcb5
#b2aea9
#b3a9a7
#b1a6a4
#b2aca8
#c8c6c4
#d2cfce
#bebcb7
#cec9c1
#d1cabf
#d2cbbd
#d8d0c5
#dcd4c9
#dcd4c9
#ece4d9
#e4dcd1
#ded6cb
#d1c7bd
#e4dad0
#ded4ca
#beb4aa
#cec4ba
#cec5b9
#cfc8bb
#cecabf
#c7c7bf
#adafaa
#868b88
#858685
#aaaaaa
#aaaaaa
#bfbfbf
#c2c2c1
#dadbda
#caccca
#66625c
#5d5248
#615349
#61544e
#615752
#615853
#625954
#635a55
#635a55
#635a55
#635a55
#635a55
#635a55
#625954
#605752
#5e5550
#5e5650
#5e5650
#5e5550
#5b534e
#5a524c
#59514b
#240207
#280108
#2e0009
#36010c
#3b020e
#3f0210
#3a030f
#30040c
#2a060b
#2a050b
#2f010b
#30010a
#33020b
#38040d
#35050d
#2d0c0f
#281413
#251b17
#221a15
#29241e
#615e58
#cccbc4
#e2e3db
#cacdc5
#aaa6a0
#b9afab
#a29895
#afa9a4
#b8b5b0
#c2bebb
#bcb6b1
#c2bab0
#c7bfb2
#cbc3b4
#d8d0c4
#d9d1c6
#ded6cb
#e3dbd0
#e0d8cd
#d2cabf
#d8cec4
#dad0c6
#e2d8ce
#c2b9af
#cec4ba
#cbc1b4
#c4bbac
#c3bcb0
#bbb8ae
#9b9c95
#91938f
#8b8c87
#a3a3a0
#b2b2b2
#c2c2c2
#cbcacd
#e3e3e6
#c7c9c7
#68645e
#60554b
#615349
#61544e
#605651
#605752
#605752
#605752
#605752
#605752
#605752
#615853
#615853
#605752
#5f5651
#5c544f
#58524c
#58524c
#58524c
#58524c
#58524c
#58524c
#190002
#1b0003
#1e0004
#220208
#26040a
#2a040b
#280209
#1d0306
#170304
#1e0105
#2c010a
#32020b
#36030c
#3c030f
#38070f
#2e1112
#241a15
#241b16
#271f19
#312c26
#67635d
#cecdc5
#dcddd5
#c2c5ba
#928f86
#948b84
#aca29b
#c3beb5
#c4c0bb
#beb8b5
#b8b0aa
#b7afa4
#bdb3a5
#d2c6b6
#ddd4c9
#ddd5ca
#e3dbd0
#e7dfd4
#eae2d7
#d3cbc0
#ded4ca
#e3d9cf
#dfd5cb
#cec4ba
#c5bbb1
#cec3b6
#d1c5b5
#c5bdb0
#b9b4aa
#babbb3
#b3b5af
#999a94
#aaaba6
#bebebb
#a8a8aa
#cccbd1
#e3e3e8
#c1c3c1
#7b7872
#61564d
#615349
#61544e
#605651
#605752
#605752
#5f5651
#5e5550
#5e5550
#5e5550
#5d544f
#5d544f
#5f5651
#5d544f
#5b524d
#57524c
#57524c
#57534c
#59544e
#59544e
#59554e
#0e0001
#0f0001
#100002
#130203
#150305
#180206
#170104
#120203
#110202
#1b0003
#2b0007
#36020b
#39040d
#3a080f
#330c10
#2c1514
#281e18
#2b231d
#2f2721
#3e3933
#79756f
#d7d6ce
#dfe0d7
#c1c3b7
#827f75
#999289
#bdb5ac
#c2bab1
#bbb6ae
#b9b3ab
#b7aca4
#baaca2
#cabeb1
#dbd1c2
#e6dcd0
#dfd6cb
#e5ddd3
#e6dfd4
#e5dfd6
#d7cfc6
#ded0c4
#e3dace
#ddd9cc
#d2cdc2
#c7beb5
#d6cec3
#ccc6b8
#c9bfb3
#cec2b7
#c0b9ae
#bebcb0
#c3c1bc
#c9c6c3
#c3c3c0
#a3a3a3
#c0c0c1
#d6d7d9
#caccca
#8a8984
#625d56
#60574f
#5f5750
#605752
#615853
#615853
#605752
#5f5651
#5f5651
#5f5550
#5f544f
#5d534f
#5e5451
#5c5351
#595250
#5d5a55
#5d5a55
#5d5955
#5a5752
#595651
#585551
#050101
#060101
#080001
#090001
#0c0002
#0e0002
#100003
#110102
#150203
#200104
#2c0105
#340208
#36070d
#361012
#331918
#32211d
#332923
#3c332d
#3d3530
#56504b
#a8a49e
#d7d6ce
#dcdcd3
#bebeb2
#98968a
#b0aca1
#c0bab0
#c1b8af
#b9b4a8
#b2aba0
#c2b5ab
#cbbbb1
#ccbfb4
#d0c8bb
#e6dbcf
#d3c9be
#e5dcd2
#e9e3da
#e9e4dd
#ded7cf
#ddcec0
#dbd4c5
#dedecf
#d7d7ca
#cec7bd
#d3cfc5
#d7d6ca
#ccc2b8
#c4b5aa
#c6bbad
#c2bdab
#c8c3bf
#c8c2c2
#c0bcbb
#b6b5b3
#a0a19e
#c0c2bf
#cecfcc
#a7a8a4
#6b6a65
#64605a
#656058
#665e57
#645b56
#645b56
#635a55
#625954
#615853
#635751
#615550
#5e5351
#5c5451
#5c5655
#5d5857
#635f5c
#635f5c
#625e5c
#5f5b58
#5d5956
#595756
#010100
#010100
#020100
#040000
#060100
#0b0001
#120003
#140002
#1a0204
#230306
#2c0408
#300b0f
#35171a
#3c2325
#3c2b2a
#3d322f
#3f3a35
#473f39
#564e48
#847f7a
#ccc8c1
#d3d2ca
#d2d2c9
#c8c8bc
#c8c6ba
#bab6ab
#bdb7ad
#bdb4ab
#b5aea2
#b6aea0
#beb0a5
#c1b1a8
#cdc2b8
#ddd8cc
#e0d6ca
#d7cdc2
#e8ded5
#ded8ce
#e6e1da
#ede7df
#dbcfc1
#ded6c7
#e0dcce
#ccc9bd
#dcd7cd
#ceccc3
#d7d6cc
#d7d0c6
#c1b8ad
#c4bbae
#b6afa1
#b2aaa5
#c3bcb9
#c3bfbb
#afada8
#ababa6
#bebfba
#c5c6c4
#c0c0bc
#8c8b86
#77736d
#6c675f
#675f59
#685f5a
#685f5a
#675e59
#655c57
#645b56
#625852
#605650
#5d5451
#5b5451
#5f5a58
#646160
#666564
#666664
#666564
#636362
#61605f
#5e5e5d
#000200
#000100
#010100
#040100
#060201
#0a0102
#110003
#170104
#1d0206
#240709
#2d0e0f
#311b1b
#372727
#413332
#433837
#4a433f
#494541
#5d554f
#716964
#aba6a0
#d3cec8
#d0cfc8
#d6d6cd
#d5d5c9
#d4d2c6
#d0ccc1
#cbc5ba
#bfb6ad
#b9b0a3
#b5aa9a
#bcaca1
#c6b8af
#c8c0b7
#e0ddd3
#d3c9be
#cdc3b8
#dfd6cd
#d1cbc2
#e1dcd5
#f0ece3
#d9d0c0
#e7decf
#d5cdc1
#c7c1b7
#dbd8cd
#c9c8bf
#d6d6ce
#e0ded6
#c4c1b6
#bdb8ac
#b8b0a4
#9c938e
#b7aeac
#c5bdba
#c5c0bc
#cdcbc6
#cecdc8
#bcbdba
#bcbcb8
#a6a49f
#87837d
#706c63
#6d665f
#6e6560
#6b625d
#6a615c
#675e59
#645b56
#625952
#5f5750
#5b5550
#5b5853
#5f5d5a
#636261
#676767
#686868
#696969
#686868
#676767
#656565
#020100
#030100
#040000
#070000
#090101
#0a0102
#0c0103
#140304
#1b0507
#220e0d
#2c1c17
#342927
#3c3433
#483f3e
#4e4544
#544a4a
#574d4d
#665d59
#87807a
#b6b1ab
#d1cdc7
#d8d7cf
#e0e0d7
#e3e3d7
#e2e0d4
#d9d5ca
#d0cac0
#c6bdb4
#beb3a5
#b8aa99
#c5b4a7
#c6b7ae
#c8c1b9
#d5d6cf
#d2c9be
#cfc5ba
#e0d7ce
#d1cac1
#d5d1ca
#e7e4da
#d2ccbb
#e9dfd0
#baaea3
#d4ccc2
#d8d6cb
#bbbbb3
#d2d0cc
#dadcd4
#ced1c6
#c2bfb4
#bdb4aa
#b2a7a1
#b7aca8
#c1b8b2
#c7c1ba
#d7d3cc
#d8d6cf
#cecfcc
#bfc0bc
#a9a7a2
#87837d
#726e65
#726a63
#6e6560
#6a615c
#685f5a
#655c57
#615853
#5e574f
#5a554d
#57534e
#575651
#5a5a57
#5e5f5d
#626466
#646668
#66686a
#686a6c
#6a6c6f
#6c6d6e
#080101
#080101
#090001
#090000
#0c0001
#0a0102
#070403
#110404
#180707
#221512
#2e2921
#3b3733
#474040
#544a4b
#5c5152
#5d5052
#665759
#7a716d
#ada59f
#d0cac4
#d9d5cf
#e0dfd7
#dfded5
#e1e1d6
#e0ded3
#dad6cb
#d5cfc5
#cbc2b9
#c3b7a8
#c3b4a1
#c1b0a2
#d1c3ba
#dbd6cf
#d4d6cf
#d3cabf
#d6ccc1
#e3d9d0
#cfc8be
#c3beb6
#e1ded5
#d3cebd
#dfd5c6
#b7a89e
#d3c8bf
#d4d4c8
#bcbbb5
#d8d6d2
#e4e9e1
#d7ded3
#c3c3b8
#b5aca2
#c4b7b1
#c4b8b2
#c4bbb4
#cfc7c0
#cbc5bd
#d2cec7
#c8c9c6
#c6c7c3
#b3b1ac
#97938e
#79746c
#716963
#6b625d
#685f5a
#645b56
#615853
#5d544f
#59534b
#555149
#524f4a
#53524d
#565753
#5a5b59
#5d6163
#5f6366
#616568
#676b6e
#6e7275
#747678
#080001
#040100
#010200
#020300
#040100
#060202
#060205
#0e0608
#1c1112
#2a1b1c
#3b2b2a
#483b3a
#554848
#554a49
#5b5150
#615856
#7c7472
#a09793
#c9c3bd
#dddcd4
#dddcd4
#e1dcd6
#e5ded9
#e1e1dc
#dddcd6
#dddad3
#d8d3ca
#cec6be
#c1b0a8
#bab8a1
#c1bea9
#cebdb2
#d2d6c2
#dce0d1
#d6cebd
#d4c8c0
#ded0cb
#c6baae
#c4bcae
#d6cdc5
#d3c8bb
#d8cdc1
#b7ada4
#c5bdb4
#d3cfc6
#bcbcba
#dfdfde
#efe9e4
#e0dad4
#c3bcb1
#cdbdaa
#bdb4aa
#bdb7b1
#c7c0ba
#d4cec8
#ccc7c1
#cbc6c1
#c8c5c3
#c7c4c3
#bfbbb9
#a4a09e
#797573
#6f6966
#675e59
#615853
#5d544f
#5a514c
#584f4a
#564e47
#554d46
#514c47
#504c48
#52504e
#555553
#5c5d5d
#5c5e5e
#5e6060
#676969
#707272
#767a7b
#0a0001
#050100
#010200
#010300
#030200
#060202
#070204
#0e0608
#1e1212
#2c1c1c
#3d2a2a
#473435
#4f3d3d
#574646
#6a5d5c
#887c7a
#a79d9b
#bdb3ae
#d6d1cb
#dbdcd4
#dfdfd7
#e4ded8
#e8dfda
#e3e0d9
#ded8d0
#dad3ca
#d1c8be
#c7bdb1
#cdbcb7
#ccc9bf
#d0c7bd
#d2bbb8
#cccec8
#dedcdd
#ddd8ca
#c5beba
#ccc3c3
#cac2b6
#c6bfaf
#cbc2b8
#d4c9bd
#e1d7cd
#c9c1b8
#bfb9b0
#c9c4be
#bebcb7
#e6e3de
#e8e3dd
#d9d6d2
#d2d1cc
#d0ccc4
#ddd8d1
#c3beb8
#c2bdb7
#cbc6c0
#d1ccc6
#cdc8c3
#c3bfbe
#c1bdbc
#b9b5b4
#9b9796
#797574
#6d6765
#645b56
#5d544f
#59504b
#564d48
#544b46
#524942
#504841
#4d4743
#4d4844
#4f4c4a
#52514f
#585958
#5b5d5c
#606261
#686a69
#727473
#767a7a
#0f0001
#0a0000
#030100
#020200
#040100
#070101
#080102
#100606
#1f1111
#2d1b1a
#3e2a28
#483231
#564040
#756160
#958281
#b5a5a3
#bfb0ae
#c2b8b3
#d8d3cd
#dcdcd4
#e2e1da
#e6e1da
#e9dfd9
#e6ded4
#ded5cb
#d1c6ba
#c3b6a8
#c9baab
#dacdc2
#d3cfcb
#d1beb6
#d5baaf
#cccccc
#eae2e6
#f0ecdd
#e8e6e3
#d7d5d9
#c8c7be
#cfcbbc
#d0c8be
#dbd2c7
#e5ddd3
#dad3cb
#c3bfb8
#a9a6a1
#cecfcb
#e1e7e5
#dfe6e2
#c1c1b8
#c2bdb4
#d4d0cd
#e0dcd7
#cdc8c2
#c1bcb6
#cdc8c2
#d3cec8
#c4bfba
#bcb8b7
#bdb9b8
#b1adac
#9a9695
#757170
#635d5a
#605752
#5a514c
#554c47
#524944
#504742
#4d443e
#4b433c
#48423e
#494440
#4b4946
#4e4d4b
#535453
#5b5d5c
#636564
#696b6a
#737574
#7b7e7d
#1b0007
#120003
#090001
#050100
#060202
#0a0303
#0b0201
#100504
#1d0d0b
#301c19
#3d2623
#523b38
#735e5a
#9a8682
#b5a39e
#c1b2ac
#c5b7b1
#c9bfba
#ddd8d2
#dfdfd7
#e5e4dd
#e3ded7
#e2d7d2
#e3dbd1
#ddd4ca
#cbbfb4
#baad9f
#b8a99b
#c7c1ab
#adaaa1
#997a65
#b6996e
#828271
#766655
#d2c7ac
#f3ede4
#eeedf0
#d1d5ce
#d2d3c6
#e0dbd1
#e2dbd2
#e5dfd7
#d6d2ca
#9c9b95
#c0bfbb
#d2d5d3
#98a4a6
#5a6663
#6b6149
#9f8366
#9a8478
#cac2bc
#c5c0ba
#d2cdc7
#d9d4ce
#cec9c3
#bdb8b3
#aba7a5
#b6b2b1
#9c9998
#8b8786
#6d6968
#605a57
#5a514c
#544b46
#514843
#4e4540
#4a413c
#473e37
#453d36
#443e39
#45413d
#494744
#4d4d4b
#555656
#575958
#616362
#727473
#808281
#8c8e8d
#23000a
#180006
#0e0103
#080102
#090303
#0c0404
#0d0301
#130604
#210f0c
#351f1b
#513834
#74615b
#a19089
#b8a9a2
#c3b7af
#c2b8af
#c1b8ae
#d5cbc6
#e1dcd6
#d9dad2
#dcdbd4
#dfd9d3
#e2d9d5
#e8e5de
#e3ded6
#d1cac2
#c3bab0
#d0c5ba
#e9ead5
#c8c5c6
#bf967f
#be9d5f
#95957d
#86714d
#c5a576
#c9b8a7
#f7f3f0
#e6ede6
#d5dbcf
#e4e4db
#ded9d0
#e6e2db
#c9c7c2
#acaca8
#d7d8d4
#70685f
#b2ad9d
#5d6359
#856f48
#cba27b
#ac948a
#f7f0eb
#e3ded8
#cec9c3
#ccc7c1
#beb9b3
#bab5b0
#a29e9c
#a29e9d
#9f9b9a
#979392
#6f6b6a
#5a5452
#544b46
#4d443f
#4a413c
#483f3a
#443b36
#403731
#3f3630
#3d3732
#413c38
#44413f
#484846
#4e4f4e
#545655
#636564
#797b7a
#8c8e8d
#9b9c9a
#28010a
#1d0107
#110204
#090202
#0a0303
#0e0404
#0e0402
#160805
#281612
#4a3531
#7e6662
#a5948d
#b9ada4
#c0b6ac
#bfb7ad
#b9b2a7
#bfb9ae
#d4cbc7
#e3dfd9
#e0e0da
#e1dfd9
#e7e2dd
#ebe4e1
#ecede9
#e8e7e2
#d9d7d1
#d3cec6
#dad3cb
#e7eade
#e2dce8
#bd9589
#caa972
#948a6d
#b79a71
#cba06b
#82654c
#f3eae3
#f6faf3
#e4ede2
#e2e5de
#e6e1da
#dfddd6
#b8b8b2
#dededa
#bcbcb9
#7f6043
#ba976e
#8a7451
#a7885a
#bc9872
#c7bcba
#f7f3f0
#efebe5
#e7e3dd
#d3d0ca
#d0cdc8
#c0bdb9
#aaa8a6
#a29f9f
#a7a4a5
#9c9898
#706c6a
#554f4c
#4e4540
#473e39
#433a35
#413833
#3e3530
#3a312a
#383029
#36302c
#3b3632
#3e3c39
#424240
#464847
#505351
#646665
#7f817f
#969896
#a7a8a5
#2b0308
#1c0404
#0c0502
#060501
#0d0403
#0f0203
#120904
#1d120e
#3b2c29
#786664
#ab9695
#beafa9
#c0b6ad
#c3b9b0
#c2b8af
#bfb5ac
#c5bcb3
#d2cdcb
#e3dfdd
#eae6e5
#e8e4e3
#ede9e8
#eeecea
#ebecea
#e8e9e4
#dedcd7
#d7d3cd
#dbd7ce
#e7e5df
#efece6
#bfb4a8
#9c866f
#c5a688
#c29b79
#987155
#8e715f
#d4cac1
#f6f7f1
#e8efe7
#e4e9df
#e7e1db
#dfdfd7
#b9bcb3
#f2f0e9
#8e8683
#665144
#9b7c5f
#b5906f
#ac8b6c
#a69688
#f0eeea
#eff1ea
#eeefe9
#eeefe9
#dddddb
#cfcfce
#bcbdbd
#a6a9a8
#9a9c9e
#b0afb5
#a9a8a9
#7e7b77
#544f48
#473e39
#3c332e
#3a312c
#372e29
#352c27
#312822
#2f2720
#2c2622
#302b27
#34312f
#383735
#3f4440
#4b504c
#636761
#82847f
#9ea09a
#b2b4ad
#230307
#160203
#090300
#070400
#120706
#180b09
#1e1510
#332825
#675956
#a49592
#c2b0ae
#c6b8b2
#c4bab1
#c3b9b0
#c3b9b0
#c1b7ae
#c8bfb6
#d1cdcb
#dedad9
#e2dedd
#e8e4e3
#ede9e8
#efedeb
#ecedeb
#e5e6e2
#dbd9d4
#d6d2cc
#d5d0c7
#dbd6cf
#e0dbd3
#f3eae0
#e1d5c8
#b9a99b
#b1a090
#bca99f
#afa198
#c4c0ba
#fcfef9
#f1f6ef
#ebede5
#e7e3dc
#e3e3db
#c6c6be
#efece5
#7e7470
#bbb5b3
#c0beb8
#c5bcb4
#dad2c8
#edeae5
#ebf3f5
#eaeee8
#e8e9e3
#e3e4df
#d6d6d4
#c3c3c3
#bfc0c0
#b4b8b7
#b1b3b6
#b7b6bb
#a6a5a7
#787571
#4b463f
#3e3530
#322924
#302722
#2e2520
#2c231e
#2a211b
#29201a
#26201b
#27221e
#2a2825
#2f2e2c
#3c3e3b
#4b4e4b
#676a66
#848884
#a3a7a3
#b8bcb9
#170407
#0e0102
#080100
#0a0300
#180c07
#281a17
#433834
#6e6460
#a59996
#c1b5b2
#c7bab7
#c8bdb7
#c7bdb4
#c4bab1
#c5bbb2
#c3b9b0
#cbc2b9
#d6d1cf
#e2dedd
#e0dcdb
#e7e3e2
#ede9e8
#efedeb
#e7e8e6
#e4e4e0
#dfddd8
#d7d2cd
#d1ccc4
#d4ccc3
#e0d7cd
#e7ded5
#efe9e0
#f1ece5
#f8f3ed
#f7f4f1
#e6e5e3
#cbcbc7
#f4f4ef
#ebebe5
#e4e5de
#e4e2db
#e4e3db
#cfcbc4
#e0d9d3
#c2bab5
#f1f1f1
#f0f7f8
#f7f7f3
#f3f0ea
#efeeea
#e9edec
#e8eae4
#e3e4de
#dcddd7
#cccdcb
#bababa
#babbbb
#aeb2b1
#a3a5a8
#a7a6ab
#a1a0a2
#73706c
#47423b
#372e29
#2c231e
#29201b
#261d18
#231a15
#231a13
#221a13
#201a15
#1e1915
#211f1c
#292826
#3a3a35
#4e4f4b
#6a6c6a
#848888
#9ca2a2
#b0b6b7
#0a0407
#040000
#0a0201
#140904
#261811
#41322c
#756865
#a89d99
#c2b9b4
#c7bfba
#c8c1bb
#c8c0b8
#c8beb5
#c8beb5
#c4bab1
#c3b9b0
#cdc4bb
#d5d0ce
#e3dfde
#dfdbda
#e3dfde
#e5e1e0
#e6e4e3
#e1e2df
#dadbd6
#e0ded9
#dbd6d1
#d9d4cb
#ddd4ca
#ded5ca
#e0d9d0
#dedad4
#dededa
#eaebe9
#eef2f3
#e7e9e8
#c9c7c2
#e8e4de
#dcdad4
#e1e2dc
#cdcec6
#d2cec7
#c9c1bb
#c7bdb8
#cac3bd
#eae7e2
#f3f1ed
#f5f1ea
#f0eae0
#f0e8df
#f0e9e0
#e3e2da
#dadbd5
#d4d5cf
#d7d7d5
#b6b6b6
#abacac
#a8acab
#aaacaf
#aeadb3
#9f9ea0
#63605c
#3d3831
#2e2520
#251c17
#221914
#201712
#1d140f
#1c130d
#1c140d
#1a1410
#18130f
#181613
#242321
#373430
#4d4c49
#636565
#797e82
#8d969a
#a5adb3
#000305
#020101
#0e0605
#1f120d
#37271f
#6c5b55
#a59794
#c6bbb7
#cac2bd
#cbc6c0
#cac8c1
#cdc6be
#cbc1b8
#c6bcb3
#c2b8af
#c2b8af
#ccc2ba
#d3cfcd
#dad6d5
#ddd9d8
#e1dddc
#ddd9d8
#d9d7d5
#d8d9d7
#dadbd6
#e0ded9
#dfdad5
#ded9d1
#e1d8ce
#dcd3c9
#e0d8ce
#dcd7ce
#d9d6d0
#e0ded9
#e9eae6
#e1ded7
#ccc3b8
#dad0c7
#d6d2cd
#dee0dd
#d2d7ce
#ccc8c1
#b9adaa
#baafab
#ccc6c0
#e6e0d7
#f1e8df
#efeae1
#ebe7e0
#e9e5dd
#e6e0d8
#e1e1d9
#dadbd5
#d1d2cd
#babab8
#aaaaaa
#aaabab
#b9bdbc
#b7b9bc
#b1b0b6
#8b8a8c
#504d49
#342f28
#2e2520
#261d18
#201712
#1c130e
#19100b
#170e07
#160e07
#150f0a
#130e0b
#100d0b
#181614
#302b27
#413e3b
#535456
#686e73
#778189
#8d98a0
#060101
#0e0303
#200f0e
#392624
#4f3e39
#93857f
#bcb0ad
#ccc3be
#d1c8c3
#d0cac4
#cfcac4
#d1cbc4
#cdc3bb
#c5b9b0
#c2b4aa
#c1b7ae
#ccc4bd
#d2cdc8
#d6d2ce
#ddd9d5
#e1dfdc
#dddcda
#dedddb
#dadbd9
#e0e0de
#e1e0dd
#e0deda
#dad8d4
#d9d5cd
#e0dbd0
#ddd8cd
#dfdacf
#dedad0
#e2dfd5
#e5e3dc
#dcd7ce
#d5ccc1
#d6cfc4
#d7d5cc
#d7dad3
#d6d4cd
#c5bbb6
#bfafab
#b4a6a1
#d3cdc5
#dedad0
#eae3db
#eae5e0
#e6e4df
#e4e2dd
#e0ddd8
#dededb
#d3d4d3
#c1c1c1
#9e9e9f
#a8a9ab
#c6c7ca
#c3cbcb
#b0b6bb
#a5a7af
#7e7f82
#4b4b46
#2c2a21
#241c16
#1d1510
#19110c
#170f09
#140c06
#110804
#100804
#0f0805
#0f0807
#0d0706
#110c0b
#27221e
#383533
#434344
#4e5256
#5b6268
#6c747c
#1b0807
#240d0d
#351c1d
#493232
#675754
#aa9f9b
#bfb6b1
#cdc4bf
#d2c9c4
#d0c7c2
#d1c8c3
#d3cdc8
#cec5be
#c8b9ae
#c3b4a7
#c2b7af
#cdc6c0
#d3cdc5
#d6d1ca
#d9d5d0
#dbdad5
#d9d9d6
#dddedc
#e0e0e0
#e5e5e5
#e7e7e7
#e5e5e5
#e1e1e1
#deddd8
#dedbd2
#dbd8ce
#dddad1
#e1dfd5
#e4e2d8
#e8e6e0
#e2ded9
#dcd5cf
#d2cac2
#cfc8be
#d6d1c6
#d6cfc9
#cdc1bd
#ab9c97
#b5aba4
#d5d6ca
#e2e3d8
#e5e1db
#ebe8e1
#e9e5df
#e5e2dc
#e1ddd7
#e0e0e2
#dcdde1
#c5c6ca
#a0a1a5
#b3b4b8
#cbced1
#c2cbce
#bfc7cf
#9aa0a9
#4c5154
#282b25
#1f1f16
#1a1410
#16100c
#120d08
#0f0a05
#0d0703
#0b0403
#0a0404
#0a0404
#090303
#0b0505
#0d0707
#191512
#2b2926
#353535
#414142
#4c4f52
#565b5f
#2f1a19
#371e1f
#482c2d
#574040
#857673
#b4aaa6
#c3bab5
#cdc4bf
#cdc4bf
#cbc2bd
#d1c8c3
#d6cfca
#d1c8c1
#cabcb1
#c4b5a8
#c4b8b0
#cec7c2
#d4cec7
#d2cec6
#d1cec9
#d7d6d1
#dfdfdc
#dee0de
#dfdfdf
#e4e4e4
#e8e8e8
#e8e8e8
#e4e4e4
#ddddd9
#dadbd4
#dfdfd9
#e1e2db
#e4e5de
#e8e8e2
#e8e8e4
#e5e4df
#e5dfda
#e4d7d2
#c1aba7
#ccb3b0
#c9b9b6
#b4a5a2
#928582
#c9c3be
#e3e5dd
#eaece6
#e2e2df
#ddddd9
#e2e2df
#dcdcd8
#c8c8c5
#aeafb1
#9b9ca0
#b9babe
#c5c6ca
#cbccd0
#d0d2d6
#c4ccd1
#b1b8be
#7a7e84
#404344
#22241e
#15150d
#110c08
#0d0804
#0b0703
#0a0602
#080300
#070201
#070101
#070101
#060100
#070202
#0a0504
#120e0b
#1f1d1b
#303030
#38393a
#3e4245
#494b4f
#412728
#472a2c
#54393a
#705b5b
#9f938f
#bab3ae
#c4bbb6
#c9c0bb
#cbc2bd
#cbc2bd
#d2c9c4
#d8d1cc
#d3cac3
#ccbdb2
#c5b6a9
#c4b8b0
#cfc8c2
#d6cfc8
#d6d1ca
#d1cdc8
#d8d8d3
#e4e4e1
#e1e2e0
#dddddd
#e0e0e0
#e4e4e4
#e6e6e6
#e6e6e6
#e4e4e3
#e3e4e1
#e7e8e5
#e4e5e2
#e6e6e4
#ecece9
#edeeec
#eef0ec
#f1efeb
#e1d2d1
#bd9fa0
#bd9498
#c7a1a4
#b7989a
#7f686a
#beb2b2
#f8f0f1
#ecebeb
#dfe3e2
#d1d4d4
#cacecd
#c1c5c4
#a3a6a6
#838588
#a9aaae
#d3d4d8
#dddee2
#d6d7db
#d6d8dc
#c1c7cd
#8f9497
#434647
#1e201b
#11120a
#0b0b05
#080604
#060401
#050301
#040200
#030100
#030100
#030100
#030100
#020000
#040100
#060402
#130f0c
#1e1c1a
#2e2e2e
#38393a
#3e4245
#47474c
#4b2e30
#4f3133
#5b3e40
#7d6a68
#aea5a0
#c4bfb9
#c6bdb8
#cac1bc
#cdc4bf
#cdc4bf
#d2c9c4
#d8d1cc
#d3c9c2
#cbbdb2
#c5b6a9
#c4b8b0
#cfc8c2
#d7d1c9
#d9d4cd
#d2cfca
#d0d0cb
#d8d8d5
#dddfdd
#e6e6e6
#dfdfdf
#dcdcdc
#dfdfdf
#e4e4e4
#e5e6e6
#e5e7e8
#e7e8ea
#e9ebec
#eceef0
#f0f2f3
#efeeef
#eef1ef
#f1f3f0
#eae3e0
#c7aeb0
#a97f85
#a46f75
#926a6f
#99878a
#e8dfe4
#f6eef4
#ededf2
#d5dddf
#d2dadd
#e4ecee
#c2c9cc
#848c8e
#abadb1
#cfd0d4
#d4d5d9
#dbdce0
#dcdde1
#d1d3d7
#a8abb3
#616465
#2c2e28
#121309
#070700
#060502
#040404
#030303
#020202
#010101
#010101
#010100
#010100
#010100
#000000
#010100
#040402
#110d09
#1d1b19
#292928
#353637
#3d4043
#45474a
#523235
#553638
#614546
#897775
#b5aea9
#c2bfb8
#cac1bc
#cec5c0
#cfc6c1
#cdc4bf
#d2c9c4
#d7d0cb
#d1c8c1
#cabbb1
#c4b5a9
#c4b8b0
#cfc8c2
#d8d2ca
#dad6ce
#d4d0cb
#cecec9
#d1d1ce
#dbdcda
#dedede
#e5e5e5
#e8e8e8
#e5e5e5
#e1e1e2
#e4e6e8
#e6eaee
#e5e9ed
#eaeef2
#eceff3
#ebeef2
#f0eef1
#eff2f2
#edf7f3
#f1f4f0
#f2e3e4
#ccadb1
#8d6164
#987f80
#eee8e8
#f2f7f8
#eff7fb
#e0eaef
#dae4e8
#dce6ea
#d8e2e6
#b8c2c6
#858e92
#acafb3
#d8d9dd
#d3d4d8
#dcdee2
#ced0d4
#9c9da2
#73757d
#464848
#24251c
#121105
#070400
#050302
#020304
#010203
#010102
#000102
#000102
#000100
#000200
#000200
#000100
#010200
#040402
#0d0a07
#1a1816
#262625
#313233
#393c3f
#414446
#533638
#573d3e
#6c5655
#a0908e
#c0b5b1
#c7bfba
#cac1bc
#cfc6c1
#d2c9c4
#d3cac5
#d8cfca
#d9d0ca
#cfc6bd
#c1b7ae
#bcb2a8
#c1b8af
#d2cac1
#d8d2cc
#d8d3cd
#d8d3cd
#d2cfc8
#d6d2cd
#dad8d3
#dadad9
#e0e2df
#e4e7e7
#e3e7e8
#dee4e6
#dbe1e4
#dee4e7
#e3e9ec
#e3eaed
#e4ebed
#e7edef
#ebecf1
#eef0f5
#eff5fa
#f0f5fc
#f3f6fd
#e7e3ed
#9b8890
#e2d5dc
#f3eff3
#eaeff2
#e6eef1
#d4dde0
#d9e2e5
#d7dfe3
#b8c1c4
#7e8689
#949c9f
#c5cccf
#dae0e3
#ccd2d5
#cbd1d5
#a4aaae
#5e6265
#474648
#3a3937
#2c2823
#1b1610
#110a02
#0c0603
#030301
#010001
#000102
#000305
#000306
#000202
#010101
#010101
#000000
#010201
#040404
#0c0c0b
#181817
#242424
#313131
#363737
#3c3c3c
#4f3637
#574040
#796664
#ae9f9c
#c4b9b5
#c8bfba
#ccc3be
#d2c9c4
#d6cdc8
#d7cec9
#d7cec9
#d7cec6
#cfc6bd
#c4bbb2
#bfb6ad
#c2b9b0
#d0c8be
#d9d3cd
#d9d4ce
#dad5cf
#d7d2cc
#d8d3cd
#d8d4cf
#d9d9d4
#dbdcd9
#d8dbda
#dde2e2
#e2e8ea
#dce2e4
#dfe5e6
#e2e7e9
#e6ebed
#e4e9eb
#e0e5e7
#e5e7eb
#e6e8ed
#e5e9ef
#e6ebf4
#dde5ef
#ccd1dc
#837c87
#d6d1db
#e3e3eb
#d9dee4
#d3dce1
#c5cfd3
#c4cccf
#a5adb0
#99a1a4
#9da5a8
#b1b9bc
#c9d1d4
#dae2e5
#ced6d9
#979fa2
#7e8689
#62696c
#3a3938
#272421
#201b17
#1a140f
#100701
#0c0601
#070300
#020200
#010102
#010204
#000305
#010203
#010101
#010101
#010101
#030303
#050505
#0f0f0f
#1b1b1b
#262626
#313131
#363636
#383837
#4c3434
#564241
#877674
#baaeaa
#c8c0bb
#c8c0ba
#cec5c0
#d4cbc6
#d9d0cb
#d9d0cb
#d5ccc7
#d4cbc3
#d0c7be
#c9c0b7
#c5bcb3
#c4bbb2
#cec5bc
#dad4ce
#dad5cf
#dbd6d0
#dcd7d1
#d8d3cd
#d7d2cc
#d9d8d3
#d7d6d2
#d6d7d4
#d9dcdb
#d7dcdd
#d8dddd
#dee3e2
#e2e7e7
#e0e5e4
#e0e4e4
#e1e6e5
#dbdcdf
#d6d8dc
#d0d5d9
#d2d7df
#d7e0e7
#d5dce5
#d1d2df
#dce0ec
#dbe2ed
#c3cdd7
#adbac3
#949fa5
#7b8386
#949c9f
#b9c1c4
#ccd4d7
#c3cbce
#bcc4c6
#a1a9ac
#91999c
#798184
#7f878a
#777d80
#636261
#353230
#292420
#221c17
#180f08
#120b05
#090401
#060200
#030200
#020203
#010204
#010102
#010101
#010101
#020202
#040404
#060606
#131313
#1f1f1f
#292929
#313131
#363636
#383838
#493433
#5c4948
#8d7e7c
#bbb1ac
#c9c2bc
#cbc5bf
#d1c8c3
#d6cdc8
#d9d0cb
#d9d0cb
#d7cec9
#d4cbc4
#d4cbc2
#cdc4bb
#c5bcb3
#cac1b8
#d1c9c0
#dbd5cf
#ddd8d2
#d7d2cc
#d7d2cc
#d8d3cd
#d9d4ce
#dad7d0
#dcd9d4
#dbdbd7
#d9dbd7
#d8dbd9
#d8dbd9
#dee0df
#e0e1e0
#dddedd
#e3e4e3
#e7e8e7
#e2e3e4
#e1e4e5
#e1e5e7
#e1e7eb
#e3ebf0
#e5eef5
#e3eaf5
#e3ebf6
#e3edf5
#d0dbe4
#b1bdc6
#9ca5ac
#969ea1
#c1c9cc
#cdd5d8
#ccd4d7
#bac2c5
#a7afb2
#636b6e
#596164
#656d70
#828a8d
#93999c
#605f5e
#464441
#2e2925
#26201b
#201811
#1a110b
#120b05
#090401
#050200
#030200
#000000
#000000
#000000
#010101
#050505
#090909
#0e0e0e
#1b1b1b
#262626
#2f2f2f
#343434
#383838
#3b3b3a
#473332
#63524f
#998d89
#beb6b1
#c4c0b9
#cac5be
#cfc6c1
#d4cbc6
#d6cdc8
#d5ccc7
#d4cbc6
#d3cac2
#d5ccc3
#cdc4bb
#c9c0b7
#cbc2b9
#cec6bc
#d6d0ca
#dcd7d1
#d9d4ce
#dbd6d0
#dcd7d1
#ddd8d1
#ddd8d0
#dfdad4
#e1dfda
#e3e3de
#e2e3e0
#dedfdc
#d4d5d1
#d7d7d4
#d1d2ce
#d8d9d5
#dbdcd8
#e0e2e0
#e0e3e2
#dee3e3
#d5dbde
#d5dee1
#d7e0e4
#d8e1e7
#d4dde3
#c8d0d7
#a9b0b6
#9ba2a8
#bdc4ca
#c9d1d4
#bcc4c7
#9fa7aa
#bec6c9
#a9b1b4
#889093
#7e8689
#848b8e
#8b9396
#899194
#898f92
#7e7d7c
#474441
#2f2b27
#2b2520
#261d16
#1f1710
#19110a
#110a04
#0a0501
#070300
#030200
#010100
#020202
#030303
#070707
#101010
#191919
#252525
#303030
#393939
#3e3e3e
#3e3e3e
#3d3d3d
#463231
#6a5a57
#a59b97
#c2bbb5
#c1beb7
#c8c4be
#ccc4bf
#d1c9c4
#d3cac5
#d1c8c3
#d0c7c1
#d2c9c1
#d5ccc4
#cec5bc
#ccc3ba
#ccc3bb
#cbc3ba
#d2cbc5
#dcd6d0
#ddd7d1
#dfd9d4
#dfdad6
#e0dbd5
#e0d8d0
#e1dcd4
#e2dfd9
#e3e1dd
#e1e2de
#dfdfdb
#d9d8d4
#c9c6c2
#c7c2be
#beb9b5
#c0bdb7
#cccdc9
#d6d8d5
#dce0de
#d8dddf
#d3dadd
#ced6d9
#c4cdcf
#bfc5c8
#bac0c2
#b7bcbf
#c3c7ca
#cdd1d4
#cbd1d4
#a8aeb1
#7c8285
#9aa1a3
#9da3a6
#a1a8ab
#aab1b4
#a8afb2
#9aa0a4
#9ca2a6
#8d9396
#646462
#55524f
#423d3a
#312b27
#2a211c
#251c16
#1f1610
#180f0a
#100905
#0a0503
#070300
#030201
#030202
#050404
#0a0a0a
#161616
#232222
#2f2f2f
#39393a
#434344
#494949
#454545
#414140
#4c3837
#786c68
#afaaa4
#bebdb6
#c8c6bf
#c9c5c0
#cac9c4
#cdcac5
#cfcac3
#cdc6bd
#d1c8bf
#d6cdc6
#d8cfca
#d2c9c4
#cec5c0
#cfc6c1
#d1c7c2
#d7c9c3
#e1d5d0
#e1d7d5
#e2dcda
#e0dcde
#dfdbdb
#e0d8d2
#e1dad4
#e2ded8
#e3e0da
#e3e2dd
#e1e0da
#d4ccc7
#bfaba7
#bfa39e
#bc9f98
#ad958c
#c5b7b0
#d4ccc6
#cac6c2
#d2d1d1
#d7d6da
#dddde1
#d5dcdb
#d1d9d8
#c5cccb
#aeb6b4
#bdc4c3
#cacfce
#cfd2d1
#c3c6c5
#8e9190
#8e9090
#b3b5b5
#c2c4c8
#babcc1
#b0b2b7
#a3a4a9
#9b9ca1
#97999d
#5b5a58
#403d3b
#3f3938
#403838
#3c3233
#302627
#291f1f
#211717
#190f10
#120809
#0d0304
#090303
#060201
#0e0a09
#181413
#231f1e
#2d2a29
#383839
#434344
#4d4d4e
#525253
#515152
#484848
#533f3e
#857874
#b5b0a9
#c1c0b8
#cbc9c1
#cbc7c1
#c9c8c3
#ccc8c3
#cec9c2
#cdc6bd
#d1c8bf
#d7cec7
#dad1cc
#d4cbc6
#cec5c0
#cfc6c1
#d1c8c3
#d3cbc4
#ded7d0
#ded9d4
#dfdcd8
#dedcd9
#dddcda
#dcdbd6
#dad7d1
#dcd6cf
#e1d9cf
#dfd6cb
#d5c5bc
#bfa69e
#ba9993
#cfaba3
#aa897f
#a38679
#c9aea3
#c6afa6
#bcaba4
#b7aea9
#bbb8b5
#cbcdca
#c3c8c6
#c4cac8
#c2c8c6
#9ca2a0
#bfc5c3
#d4d8d6
#cccecd
#c2c4c3
#b1b3b2
#b1b3b2
#c3c5c5
#cecfd4
#c2c3c8
#b4b5ba
#a2a3a8
#a9aaaf
#97989c
#5b5958
#363332
#393333
#362e2f
#352b2c
#392f30
#342a2b
#271d1e
#1f1516
#1a1011
#150b0c
#110b0a
#0e0a09
#161211
#211d1c
#2c2827
#363332
#404040
#4b4b4b
#555555
#585858
#575757
#4f4f4e
#503c3b
#867975
#b4afa8
#c3c2ba
#cccac3
#cdc9c3
#c8c7c2
#ccc9c4
#cfcac3
#cfc8be
#d2cac0
#d8cfc7
#dbd2cd
#d5ccc7
#cec5c0
#cec5c0
#d1c9c3
#d0ccc4
#dad7cf
#dedbd3
#dfddd5
#dcdad3
#dcdbd6
#d8dad6
#d5d1cc
#d0c6bd
#c3b2a5
#b6a090
#b99689
#be9289
#caa195
#ba9588
#8a695b
#b89a8a
#d0ac9e
#cdaa9d
#a4857b
#937d75
#8a847a
#c3c5bc
#c9cdc8
#c6cbc6
#cbcfcb
#c3c8c3
#c5c9c5
#c9ccca
#cdcfce
#cccecd
#cbcdcc
#cfd1d0
#d1d3d2
#cdced2
#c0c1c6
#aaabb0
#adaeb3
#b1b2b7
#8c8d92
#565453
#363331
#2d2727
#342c2c
#372d2e
#352b2c
#302627
#2a2021
#261c1d
#221819
#1c1213
#181212
#181413
#1f1c1b
#2a2625
#34302f
#3e3b39
#474744
#51524f
#5a5b58
#5d5d5b
#5d5d5a
#555552
#533f3e
#8b7e7a
#b9b4ad
#c3c3bb
#cbc9c1
#cecac5
#c9c8c4
#cfccc7
#d2cec6
#d4cdc3
#d5ccc3
#d7cec7
#ddd4cf
#d8cfca
#cfc6c1
#ccc3be
#d2c9c4
#d6d1cb
#dbd6cf
#e0dbd3
#e2dbd2
#e1d9ce
#e1d8cf
#d2c8c2
#bbada5
#ac958b
#ac8c80
#b89284
#c79c8e
#caa092
#b38f80
#826556
#ad9183
#cfb2a4
#d7b4a3
#b99184
#a47d73
#94766c
#7b6f65
#c7c6ba
#d7d8d3
#d3d5cf
#d3d5cf
#d6d8d2
#d2d3ce
#ced0cc
#d0d2d1
#d6d8d7
#d7d9d8
#d6d8d7
#d5d7d6
#c6c7cb
#b7b8bd
#a5a6ab
#b6b7bc
#b2b3b8
#838489
#4a4847
#302e2c
#2e2828
#312a2a
#342a2b
#352b2c
#33292a
#2f2526
#2d2324
#2a2021
#241a1b
#201a1a
#252120
#2c2827
#34302f
#3d3938
#454240
#4d4d48
#555650
#5c5d58
#5f605b
#61625d
#5a5b57
#624d4d
#9a8d8a
#beb9b2
#c4c3bc
#c7c5bd
#c9c5bf
#c8c7c2
#cecbc6
#d1cdc5
#d4cdc3
#d5ccc3
#d5ccc4
#dbd2cd
#dcd3ce
#d6cdc8
#cfc6c1
#d1c8c3
#d7ceca
#e0d7d1
#e9ded6
#e2d3ca
#d7c6bb
#bca99d
#b5998d
#b5958b
#c19b92
#d1a49e
#d8a7a1
#cea499
#9f8371
#7c6856
#a89788
#ceb9ad
#d6bbb3
#dbc1b0
#9a7b6d
#b08880
#7c5953
#7e6c66
#ccc7be
#dcddd6
#d9dad3
#d6d7d0
#dbdcd6
#ddded8
#d4d6d2
#d2d4d4
#d3d5d4
#d6d8d7
#d9dbda
#cacccc
#b1b2b6
#adaeb3
#b2b3b8
#bcbdc2
#a5a6ab
#707176
#3a3837
#2a2726
#2e2828
#2e2727
#312728
#322829
#322829
#33292a
#322829
#302627
#302627
#2e2828
#332f2e
#3a3635
#423e3d
#4b4746
#52504d
#585852
#5b5c56
#5f605a
#676861
#686963
#61625d
#695554
#a69996
#bfbab3
#c3c3bb
#c5c3bc
#c9c3bf
#cbc6c3
#cfc9c5
#d3ccc5
#d4ccc3
#d4cbc1
#d3cac0
#d8cfc8
#dbd3ce
#d9d1cc
#d3cac5
#d3c7c1
#d0c7bd
#cbc0b4
#c2b2a7
#ab958a
#a98c80
#bd9b90
#bf998d
#cca598
#cea599
#caa096
#b78e87
#907268
#96887a
#bab2a5
#d2cabf
#d0c0b8
#d7bbb5
#ccb1a1
#c2a294
#9d7b72
#5c3d36
#877770
#d2cac3
#dbdbd5
#d8d8d3
#d2d2cc
#d8d8d2
#deded8
#d8d8d3
#d4d4d1
#d1d1ce
#d2d3d0
#d2d4d2
#bdbfbe
#a5aaaf
#babec5
#bfc3c8
#b7b9be
#939599
#585a5d
#302b2b
#282121
#2d2626
#2d2425
#2f2627
#302627
#302728
#342b2c
#342b2c
#342c2c
#372e2f
#373332
#3d3b3a
#454442
#4d4c4a
#565452
#5d5c5a
#60615d
#62635e
#656661
#6d6e69
#6f6f6b
#6d6e6a
#655150
#a69995
#beb9b2
#c3c2ba
#c8c5be
#ccc5c1
#cec4c3
#d1c7c4
#d3cac4
#d3cac2
#d1c8bf
#d4c9bc
#d6cdc1
#d7d1ca
#d8d2ce
#dacec9
#cabab1
#9a8e7b
#897965
#a18977
#af8f80
#c0998d
#c9a095
#cba49a
#d0a99b
#c5a08e
#a58878
#877266
#b0a297
#d4ccc3
#d8d5cf
#ddd9d3
#cfbdb7
#d7b7b0
#b68e80
#ddb8a9
#876a5d
#503b2f
#8c8178
#d0c9c1
#d7d7d5
#d8d8d6
#d2d2d0
#d7d7d5
#dddddb
#dedcd7
#d8d5ce
#d2d1cc
#d0d0cc
#c0c2bf
#b5b9b8
#b7bfc5
#c9d2d8
#c1c9ce
#a6abaf
#7c7f82
#434446
#2e2526
#281e1f
#2a2021
#2c2223
#2e2425
#2e2526
#2d2727
#302a2a
#332d2d
#363030
#3a3534
#3d3c3a
#464644
#50504e
#585856
#60605e
#676765
#6b6b6b
#6d6d6d
#707070
#757575
#767676
#777777
#5e4a49
#9e918d
#c0bbb5
#c4c4bc
#c9c7bf
#ccc5c1
#cbc1c0
#cec4c1
#d0c7c1
#d1c8bf
#cec5bc
#d1c7bb
#d4cbc1
#d6d0c9
#d9d2cb
#c2b4ad
#a49085
#a38677
#aa897a
#c09f90
#c7a495
#cca799
#cca79a
#c7a197
#af8a7b
#bc9b89
#8e7565
#a7998e
#dad0c7
#e6dfd8
#e0ded8
#e2dcd6
#c7b3ac
#c6a69d
#c09889
#d7b3a4
#8e7165
#4e3a2e
#8e8279
#cec7bf
#d6d6d4
#dcdcda
#dadad8
#d9d9d7
#dddddb
#e0dfdc
#dddcd7
#d7d7d3
#cccecb
#b1b4b4
#b2b7b8
#bec6cb
#c9d0d5
#b8bec2
#9a9da1
#626466
#373738
#2a2122
#241a1b
#271d1e
#291f20
#2b2122
#2c2324
#2b2525
#2f2929
#322c2c
#3a3434
#433e3d
#4a4847
#525250
#5d5d5b
#666664
#6e6e6c
#757573
#797979
#7b7b7b
#7d7d7d
#7d7d7d
#7e7e7e
#7f7f7f
#584443
#948783
#bfbab4
#c5c4bc
#c9c7c0
#cdc6c2
#ccc2c0
#ccc2c0
#cec5bf
#cfc6bd
#cec5bc
#d1c8bc
#d4ccc2
#d8d1c9
#d5cbc3
#ae9c91
#b3998b
#be9589
#c3998d
#c69e92
#c8a396
#c6a294
#bb988b
#a48073
#c29f8f
#c5a897
#867467
#d1c9c2
#e2dcd6
#e9e5e0
#e5e5e0
#ded8d2
#c6b0a7
#ab887d
#c59c8d
#cea99b
#937669
#4c382c
#8d8278
#d5cec6
#dededc
#e6e6e4
#e3e3e1
#dededc
#dadad8
#e1e1de
#e1e1dd
#d8dad7
#cbcecd
#b4babb
#b3babc
#b5bcc0
#b7bdc1
#a9aeb1
#868788
#4b4b4b
#292727
#251c1d
#221819
#241a1b
#261c1d
#291f20
#2a2122
#2a2424
#2e2828
#342e2e
#3e3838
#4a4444
#51504e
#5b5b59
#676765
#70706e
#787876
#81817f
#848484
#878787
#888888
#888888
#878787
#858585
#4c3837
#877a76
#b9b4ad
#c6c6be
#cbc9c1
#d1cac6
#d4cac8
#d3c9c6
#d4cbc5
#d6cdc4
#d6cdc4
#d4ccc1
#d6cec5
#dbd3cb
#d2c6bc
#af988a
#bb9d8a
#c39b8e
#c59d90
#bc9588
#b08b7d
#a27e71
#ad8a7c
#c39f91
#cdac9c
#a88d7e
#a1958b
#d9d8d3
#e2e1de
#e5e3e0
#e3e4e0
#d3cec8
#c8b0a6
#b18b7d
#d1a797
#c7a294
#8a6d61
#473227
#8a7e75
#d2cbc4
#e1e1df
#e4e4e2
#e0e0de
#e4e4e2
#dbdbd9
#e2e3e0
#e3e5e3
#d9dcdc
#c6cbcd
#bdc4c7
#b5bdc0
#a7acaf
#9b9ea1
#87888a
#626262
#3c3b39
#262220
#211718
#211718
#211718
#23191a
#271d1e
#291f20
#2b2525
#322c2c
#3a3434
#453f3f
#514b4b
#595756
#636361
#70706e
#797977
#81817f
#8a8a88
#8c8c8c
#8f8f8f
#919191
#929292
#8e8e8e
#8a8a8a
#463231
#857875
#bbb6b0
#c9c8c1
#cecbc4
#d3ccc8
#d5cbc9
#d4cac7
#d5ccc6
#d7cec5
#d7cec4
#d5cec2
#d7d0c6
#dcd4cb
#c9bbb1
#b79e8d
#c5a48f
#bb9b8b
#b49485
#a07e70
#a27f71
#bf9a8d
#b49082
#b89585
#a98a79
#998374
#cfc5bc
#dde1dd
#dfe2e1
#e2e2e0
#e1e3df
#ccc6bf
#b49b90
#b58b7b
#d6ac9c
#c39e8f
#806457
#4d392e
#887c73
#d1cac3
#e1e1de
#dfdfdd
#d6d6d4
#dddddb
#d6d6d4
#d9dad8
#dcdfde
#d2d6d8
#c0c7c9
#bfc7cb
#bac3c8
#a2a7aa
#898b8d
#666767
#474644
#33302e
#221d1a
#1c1314
#1d1314
#1d1314
#201617
#241a1b
#261d1e
#2b2525
#373131
#423c3c
#4d4747
#595353
#62615f
#6d6d6b
#7a7a78
#828280
#8b8b89
#939392
#959595
#979797
#999999
#999999
#959595
#919191
#4e383c
#928485
#c0b9b8
#cac7c5
#d0ccc9
#d0cac8
#cecac6
#ccc7c2
#cdc7c0
#d1cac1
#d5ccc3
#d5cec3
#d4ccc1
#dfd5c8
#bdae9f
#bda895
#bda48e
#b19280
#967767
#bc9a8c
#d6b1a5
#bd988d
#9e7a70
#7c6255
#927e73
#c8bab2
#ddd8d4
#e0e3e2
#e1e2e0
#e2e2dc
#e1e3dd
#d4cec8
#ab938a
#c1998d
#cea599
#ba968b
#7e6259
#59453e
#958983
#d4cec9
#dbdcd8
#d9dad6
#d0d1cd
#cfd1cd
#d0d2cd
#ced0ce
#d3d5d6
#caccd0
#c6c9ce
#c5c8cf
#bfc2ca
#a6a9af
#84868b
#616163
#3b3b39
#25231e
#16120d
#1a1010
#1b1112
#1c1213
#1d1314
#211718
#251c1b
#2e2723
#3c3734
#474340
#524f4e
#605e5e
#696968
#757673
#828381
#8b8c8a
#91928f
#969896
#9a9b9d
#9c9da0
#9e9fa2
#9d9da0
#999a9c
#969698
#513b40
#96888b
#c0baba
#cac9c7
#d0cdcc
#cfcac9
#cdccc7
#cbc8c3
#cac5be
#cdc7bd
#d2cac0
#d2cac0
#d4cbc0
#d6cabc
#b1a190
#b9a591
#b49d87
#967867
#a18173
#d4b3a5
#cca99f
#99776e
#5e3e35
#746257
#bcada4
#dcd3cd
#e1dfdb
#e4e6e5
#e7e7e3
#e7e7df
#e6e7e1
#ded9d3
#ac958e
#c8a196
#c8a096
#b6948a
#795e56
#5f4c46
#9d928d
#d1cbc7
#d4d6d1
#d5d7d3
#cdcfcb
#c6c8c3
#cdcfcb
#c7c9c7
#cfd0d2
#c9cacf
#cacbd0
#d2d2da
#c6c6d0
#a8aab2
#7e8086
#535355
#323231
#1e1c17
#130f0a
#160d0d
#170e0f
#190f10
#1c1213
#241a1b
#2c2321
#36302b
#45403d
#504d4b
#5b5b5a
#6a6b6b
#757776
#7e807f
#898b8a
#909291
#949695
#999b9a
#9d9ea2
#9fa0a4
#a1a2a6
#a0a1a5
#9c9da1
#999a9d
#513d41
#968a8c
#c1bcbb
#cacac8
#d1cfcd
#cfccca
#cecdc9
#ccc9c4
#c9c4bd
#c9c3b9
#cec6bc
#cec5bb
#d7cbc1
#cabcaf
#ad9b8b
#b49e8b
#9a836e
#826453
#b59688
#c5a69a
#8c6f65
#53362d
#674f47
#ab9c93
#d6cbc2
#e5ded7
#deddd7
#dddeda
#e2e2dd
#e2e2da
#e1e2dc
#ded8d2
#ad968f
#c0998e
#ba9489
#ac8b81
#694f47
#63544d
#a29a94
#ccc8c4
#cccecc
#d2d4d3
#cdcfce
#c8cac8
#d4d6d4
#cbcccc
#d6d7d9
#d4d5d9
#c0c1c6
#b6b6bf
#b9b9c3
#a7a9b1
#76787e
#434345
#262625
#16140f
#0f0c06
#100909
#120a0b
#130c0c
#1a1313
#261f20
#322d2b
#3f3b37
#4e4b48
#5a5a58
#686869
#76787a
#838586
#8a8b8c
#909192
#949696
#999a9b
#9d9e9f
#a0a1a5
#a2a3a7
#a4a5a9
#a4a5a9
#a0a1a5
#9e9fa1
#564548
#9b9192
#c2c0be
#cbcdca
#cecfcc
#d0cfcd
#cfcec9
#cecbc6
#cdc8c1
#cdc7bd
#cec5bb
#cfc4bb
#d2c4bb
#b7a69a
#b19d8e
#967e6d
#987e6a
#907163
#b19387
#866c62
#472d23
#503a31
#918078
#c9bfb7
#dcd3cc
#d9d6ce
#d8d7d0
#d6d8d1
#d9d9d2
#dbdbd4
#dbddd7
#d8d2cd
#b7a199
#bd968b
#af8c80
#a4867b
#695248
#655750
#a19b94
#c5c3bf
#d1d3d2
#cccecd
#cccdcd
#d0d2d2
#d8dad9
#cfd0d1
#d1d2d4
#dcdde2
#c7c8cd
#a3a3ab
#868690
#767880
#616369
#3b3b3d
#1b1b19
#110f09
#0f0c06
#0b0504
#0e0808
#120c0c
#1b1515
#292323
#383331
#474543
#5a5958
#676869
#737679
#828689
#8d8f93
#919296
#939498
#999a9e
#9b9ca0
#9e9fa3
#a2a3a7
#a5a6aa
#a6a7ab
#a4a5a9
#a1a2a6
#9fa0a2
#655558
#a39a9b
#c2c2c0
#c8cdc9
#cbcecb
#cfcecc
#cecdc8
#cdcac5
#cdc9c1
#cec8be
#cfc6bd
#cfc3bb
#d1c1b8
#b19f93
#af998a
#997e6d
#caad9a
#9d7e72
#92756b
#4d352b
#412e24
#584940
#a99d95
#d3cec6
#d6d3cb
#d4d2ca
#d5d5cc
#d4d5cc
#d3d2ca
#d1d1ca
#d1d3cc
#d8d2cc
#baa39c
#b38b80
#bc998d
#a98d82
#6e594f
#675b53
#928d86
#c3c3be
#d2d3d6
#cecfd2
#d2d3d6
#d5d6d9
#d5d6d9
#d5d6d8
#d1d2d4
#d6d7db
#cccdd2
#a7a7b0
#7e7e88
#55575f
#46484e
#333436
#1d1c1b
#0f0d08
#0a0702
#0a0705
#0d0b09
#12100e
#1f1d1b
#312f2d
#434140
#535352
#666768
#747779
#7e8387
#888e93
#919499
#95969b
#97989d
#999a9f
#9b9ca1
#9e9fa4
#a2a3a7
#a5a6aa
#a7a8ac
#a5a6aa
#a2a3a7
#a0a1a4
#746669
#aba4a4
#c3c4c1
#c6cbc7
#c9cdca
#cdcdca
#cccbc7
#ccc9c3
#cdc8c1
#d0c9c0
#d0c7be
#cec3ba
#cebeb5
#ad9a8f
#ad9588
#ba9e8e
#c4a694
#917368
#90756a
#4c372d
#49372e
#6c6057
#aba39b
#c8c7c1
#cccbc5
#d1d1c9
#d2d2c9
#d1d3c8
#d2d1c9
#d1d1ca
#d1d3cc
#d4cec8
#b29c95
#9e786d
#c09e90
#a58a7f
#69574d
#665b52
#8f8c84
#b8b9b4
#cacbcf
#d4d6d9
#e2e3e7
#d6d9dc
#c1c3c7
#c3c5c9
#ced0d3
#c8c9ce
#c7c8cd
#a1a1a9
#7f7f88
#60626a
#4d4f55
#414244
#292928
#181611
#0f0c06
#0a0906
#0e0d0a
#141311
#242321
#3a3937
#4f4e4e
#606061
#737577
#828689
#8b9094
#90969c
#95989e
#9999a0
#9b9ba2
#9a9aa1
#9b9ca3
#9e9ea5
#a2a3a7
#a5a6aa
#a7a8ac
#a6a7ab
#a4a5a9
#a1a2a5
#7a7273
#b2adac
#c5c1c0
#cacac8
#cccdcb
#cdceca
#cbcbc3
#cac7c0
#c9c4be
#cbc5be
#d0c7c2
#cecabf
#bcb6a9
#ac9a8f
#b4998e
#ba9c91
#b99c8f
#786057
#816c63
#544039
#57453f
#92837f
#cabfbb
#cac9c7
#cdccc9
#d0cfcc
#d1d0ce
#d1d0cd
#d6d3ce
#d6d5cd
#d0d2cb
#d1cec7
#a9988f
#a68476
#c7a18e
#9e877c
#6f645e
#6a5e52
#888175
#9b9c96
#bcbdbf
#d4d8db
#dadfe3
#d1d7dc
#b0b8bf
#a9b2b8
#c1cad0
#aaafb7
#a9adb5
#9698a1
#74747e
#5c5d68
#55575f
#4c4c51
#373738
#1f1d1a
#0f0d08
#0d0e07
#161711
#1e1f1b
#333332
#454545
#5a5b5d
#6e6f72
#828387
#8e8f93
#95979b
#9a9ca0
#9d9ea3
#9d9ea3
#9b9ca1
#96979c
#9a9ba0
#9d9ea3
#a0a1a6
#a2a3a8
#a4a5aa
#a4a5aa
#a3a4a9
#a1a2a7
#736b6c
#afa9a9
#c5c1c0
#c8c8c6
#cacac8
#cbccc7
#cacac2
#c9c6bf
#c8c3bd
#cbc5bf
#d0c7c2
#d3ccc2
#b8aea4
#b19b92
#b99b93
#b9988f
#ad9085
#9e8a81
#a5928b
#695851
#5e4f49
#9b8d8a
#cac0bd
#cecbc9
#cdcac7
#cccac7
#d0cdca
#d4d2cf
#dad6d2
#d8d7d0
#d2d5ce
#d4d2ca
#a9988f
#b08f81
#caa894
#9c8a7f
#7d7570
#71665d
#7c746a
#8a8a86
#a3a4a6
#cbced1
#ced3d7
#c9cfd4
#aeb6bd
#98a1a8
#abb4bb
#9298a0
#767a83
#70737c
#61606a
#575964
#575962
#535358
#3d3d3e
#242220
#14120d
#161710
#24251f
#30312d
#444444
#575757
#6c6d70
#7d7e82
#8d8e92
#95969a
#9b9ca0
#a0a1a5
#a2a3a8
#a2a3a8
#a1a2a7
#9d9ea3
#9c9da2
#9b9ca1
#9e9fa4
#9fa0a5
#a1a2a7
#a1a2a7
#a0a1a6
#9fa0a5
#6c6565
#aca6a6
#c5c1c0
#c6c5c3
#c7c7c5
#c8c9c5
#c8c8c0
#c8c5be
#c8c3bd
#cbc5bf
#d0c7c2
#d3cac3
#bfb1aa
#ad9590
#c4a6a0
#bfa199
#aa8f84
#cfbeb6
#d0c1b9
#a29590
#807471
#a19895
#d0c8c5
#d2cdc9
#cdc8c4
#ccc7c3
#d1ccc8
#d8d3cf
#ddd9d3
#dad9d2
#d5d7d0
#d9d6cf
#a8968d
#b89789
#bea18e
#a59992
#878583
#766e67
#7b746d
#929292
#909193
#bbbec1
#b9bec2
#b8bec3
#acb4bb
#97a0a7
#a0a9b0
#9399a1
#72767f
#5c5e67
#5c5c66
#5a5b67
#52535c
#46464c
#302f31
#1f1d1b
#191712
#1f2019
#30312c
#40413d
#555554
#676767
#7c7d80
#8a8b8f
#96979b
#9b9ca0
#a0a1a5
#a4a5a9
#a6a7ac
#a6a7ac
#a5a6ab
#a2a3a8
#9fa0a5
#9b9ca1
#9c9da2
#9e9fa4
#9fa0a5
#9e9fa4
#9e9fa4
#9d9ea3
#6a6263
#aaa4a4
#c3bfbe
#c4c4c2
#c5c5c3
#c5c6c2
#c8c8c0
#cbc7c1
#cbc6c0
#ccc5bf
#d0c7c2
#d1c9c3
#d1c6bf
#beaba5
#b49d96
#b19b93
#9d8b80
#d7cac3
#e8ded7
#cfc6c0
#b9b3af
#b2adaa
#c6c1bf
#cdc7c2
#d1cbc6
#d4cec9
#d2ccc7
#d4cec9
#d8d3cd
#d4d3cc
#d2d5ce
#d4d1ca
#99887f
#b19184
#ac9584
#aca8a3
#969899
#7a7571
#78726f
#8f8f92
#939496
#a6aaac
#adb2b6
#a8aeb3
#a2abb2
#a1aab1
#a9b1b8
#9ba1a9
#6e727b
#5e6069
#6d6d77
#666773
#4e5059
#3b3a40
#282829
#1a1715
#1f1d18
#30312a
#42433d
#565752
#686867
#787878
#8b8b8e
#919296
#999a9e
#a0a1a5
#a3a4a8
#a6a7ab
#a7a8ac
#a7a8ad
#a7a8ad
#a2a3a8
#a1a2a7
#a0a1a6
#9e9fa4
#a0a1a6
#a0a1a6
#9c9da2
#9d9ea3
#9c9da2
#61595a
#a59f9f
#c2bebd
#c3c2c0
#c3c3c1
#c4c5c1
#c8c8c0
#cbc7c1
#cbc6c0
#cdc7c1
#d1c8c3
#d3cfc8
#d9d4cd
#dbd0ca
#cdc0b8
#b4aa9f
#a19b8e
#d0c8c0
#e4ddd6
#e6e1dc
#d8d5d1
#cccac8
#c5c2bf
#c6bdb7
#c8bfb9
#cac1ba
#c7bfb8
#cac1ba
#cec8c1
#cbcac3
#c9cbc4
#c2c0b9
#917e75
#b39386
#a08f7f
#abada9
#a2a9ab
#8b8888
#7e7a7a
#89898e
#98999b
#9da0a3
#9ea3a7
#9fa5aa
#a7b0b7
#aeb7be
#acb5bc
#9aa0a9
#6f737c
#6a6c75
#7e7e88
#747581
#52545d
#323237
#1d1c1d
#1c1a17
#2e2c27
#404039
#51524c
#656662
#767676
#818182
#909194
#96979b
#9d9ea2
#a0a1a5
#a2a3a7
#a4a5a9
#a7a8ad
#a8a9ae
#a8a9ae
#a2a3a8
#a1a2a7
#a0a1a6
#9e9fa4
#a0a1a6
#a1a2a7
#9e9fa4
#9a9ba0
#96979c
#5c5354
#a09a9a
#bebdbb
#c1c2bf
#c3c3c1
#c4c4c0
#c7c7bf
#cac7c0
#cbc6c0
#cec7c1
#d2c9c4
#d2cec9
#d4d2cb
#dad4ce
#d8d1c9
#d8d3c9
#d6d4c9
#dbd6ce
#dfdad3
#e3dfda
#e4e2df
#dfdddb
#d5d1cf
#d5ccc6
#cec5bf
#cac1bb
#c9c0ba
#cac1bb
#cbc4be
#c6c5be
#c4c7c0
#c4c2ba
#96847a
#b49486
#938275
#a6a9a7
#a6afb3
#979798
#8f8c8d
#98989e
#a1a2a4
#a2a4a8
#9da1a6
#a7acb1
#afb7be
#afb6be
#9fa5ae
#898d94
#6b6e75
#6d6f77
#787883
#666872
#45474e
#26262a
#1c1c1c
#272521
#3e3c36
#51524c
#646660
#767774
#808180
#88888a
#939397
#98999d
#9fa0a4
#a1a2a6
#a1a2a6
#a2a3a7
#a1a2a7
#a1a2a7
#a1a2a7
#a1a2a7
#a1a2a7
#a0a1a6
#9e9fa4
#9fa0a5
#a1a2a7
#a0a1a6
#9a9ba0
#929499
